<?xml version="1.0" encoding="UTF-8" standalone="no"?>
<!-- Created with Inkscape (http://www.inkscape.org/) -->

<svg
   xmlns:dc="http://purl.org/dc/elements/1.1/"
   xmlns:cc="http://creativecommons.org/ns#"
   xmlns:rdf="http://www.w3.org/1999/02/22-rdf-syntax-ns#"
   xmlns:svg="http://www.w3.org/2000/svg"
   xmlns="http://www.w3.org/2000/svg"
   xmlns:sodipodi="http://sodipodi.sourceforge.net/DTD/sodipodi-0.dtd"
   xmlns:inkscape="http://www.inkscape.org/namespaces/inkscape"
   width="190.28027mm"
   height="94.535622mm"
   viewBox="0 0 190.28027 94.535622"
   version="1.1"
   id="svg8"
   inkscape:version="0.92.4 (5da689c313, 2019-01-14)"
   sodipodi:docname="logo-gplv3-black.svg">
  <defs
     id="defs2">
    <inkscape:perspective
       id="perspective79"
       inkscape:persp3d-origin="372.04723 : 350.78738 : 1"
       inkscape:vp_z="744.09446 : 526.18108 : 1"
       inkscape:vp_y="0 : 999.99997 : 0"
       inkscape:vp_x="0 : 526.18108 : 1"
       sodipodi:type="inkscape:persp3d" />
  </defs>
  <sodipodi:namedview
     id="base"
     pagecolor="#ffffff"
     bordercolor="#666666"
     borderopacity="1.0"
     inkscape:pageopacity="0.0"
     inkscape:pageshadow="2"
     inkscape:zoom="0.35"
     inkscape:cx="-150.41523"
     inkscape:cy="87.221428"
     inkscape:document-units="mm"
     inkscape:current-layer="layer1"
     showgrid="false"
     fit-margin-top="0"
     fit-margin-left="0"
     fit-margin-right="0"
     fit-margin-bottom="0"
     inkscape:window-width="1920"
     inkscape:window-height="1015"
     inkscape:window-x="0"
     inkscape:window-y="0"
     inkscape:window-maximized="1" />
  <metadata
     id="metadata5">
    <rdf:RDF>
      <cc:Work
         rdf:about="">
        <dc:format>image/svg+xml</dc:format>
        <dc:type
           rdf:resource="http://purl.org/dc/dcmitype/StillImage" />
        <dc:title></dc:title>
      </cc:Work>
    </rdf:RDF>
  </metadata>
  <g
     inkscape:label="Capa 1"
     inkscape:groupmode="layer"
     id="layer1"
     transform="translate(-11.449149,-77.375045)">
    <path
       style="fill:#bd0000;fill-opacity:1;fill-rule:evenodd;stroke:none;stroke-width:0.26458331pt;stroke-linecap:butt;stroke-linejoin:miter"
       id="path2577"
       d="m 103.25635,134.62499 c 0,0 -0.005,0 -0.005,0 -0.4241,0 -0.79858,0.13987 -1.15049,0.42411 -0.26168,0.20753 -0.44215,0.48726 -0.58653,0.79857 0,0 0.0181,0 0.0181,0 0.14437,-0.31131 0.32484,-0.59104 0.58201,-0.79857 0.35192,-0.28424 0.72639,-0.4196 1.14147,-0.42411 z"
       inkscape:connector-curvature="0" />
    <path
       id="path2579"
       d="m 32.742018,80.267776 c 5e-6,0 -15.692367,68.465544 -15.692367,68.465544 0.0045,0 0.0051,0 0.0141,0 0,0 72.59659,0 72.59659,0 3e-6,0 37.757559,0 37.757559,0 -4.4982,-0.39252 -8.04949,-1.97163 -10.1655,-4.85011 -0.39251,-0.53239 -0.7168,-1.10594 -1.00104,-1.706 -0.18046,-0.44214 -0.35022,-0.88825 -0.52167,-1.33942 -0.45118,-1.43473 -0.63108,-3.02681 -0.54987,-4.72322 0.22559,-4.7283 2.44424,-10.35262 6.28823,-16.24223 4.08312,-6.25914 10.00082,-12.8193 17.32787,-18.90698 1.64227,-1.363449 3.34037,-2.70986 5.118,-4.018265 2.19721,-1.616548 4.41135,-3.105311 6.62661,-4.497633 8.16172,-5.138412 16.30314,-8.733928 23.5174,-10.560267 -6.89392,2.249093 -14.63888,6.067261 -22.29078,11.265228 -0.27521,0.185883 -0.54705,0.376277 -0.81775,0.563965 -4.24554,2.94165 -8.09179,6.0658 -11.44852,9.220852 -10.80109,10.15592 -16.51012,20.67952 -13.91587,26.84481 0.18498,0.4241 0.40549,0.82903 0.66266,1.21253 2.78824,4.10116 9.69853,4.81006 18.4558,2.60834 0.59555,-0.14889 1.1911,-0.31751 1.80469,-0.49347 2.79728,-0.80761 5.76713,-1.89831 8.82608,-3.24281 0.73541,-0.32484 1.47872,-0.65871 2.22767,-1.01514 0.0767,-0.0361 0.14889,-0.0722 0.22558,-0.11279 9.65511,-4.79733 17.07522,-10.31732 18.6814,-13.63389 0.35191,-0.72142 0.43651,-1.33649 0.19738,-1.81879 -1.14597,-2.32354 -9.16502,-0.7538 -18.87878,3.45429 -0.78052,0.33838 -1.57008,0.68657 -2.36865,1.05744 0.64969,-0.60322 1.32588,-1.20869 2.01617,-1.8047 1.10087,-0.94836 2.24064,-1.87575 3.4543,-2.79163 1.89944,-1.43834 3.81975,-2.73862 5.71016,-3.89137 8.85202,-6.67826 13.32709,-12.995594 12.39317,-15.339884 -0.17596,-0.441703 -0.55044,-0.745567 -1.12794,-0.930547 -1.8453,-0.586971 -5.2133,0.113583 -9.30544,1.790594 -3.37478,1.384204 -7.25092,3.437149 -11.18064,5.992147 0,0 -0.53577,0.35248 -0.53577,0.35248 1e-5,0 -0.0987,0.0564 -0.0987,0.0564 0,0 -1.88929,1.25483 -1.88929,1.25483 0,-1e-5 1.08564,-1.98799 1.08564,-1.98799 1.61069,-2.948417 4.23426,-6.024735 7.50075,-8.882465 2.39573,-2.089386 5.13266,-4.058079 8.07882,-5.780659 1.1144,-0.652391 2.2271,-1.258322 3.3415,-1.804691 1.14147,-0.55766 2.2835,-1.053278 3.3979,-1.494523 3.23766,-1.280398 6.32825,-2.058406 9.02346,-2.269966 -0.24544,0 -7.57125,0 -7.57125,0 1e-5,0 -25.51948,0 -25.51948,0 0,0 -112.525422,0 -112.525422,0 0,0 -8.924769,0 -8.924769,0 z m 80.957392,0.09872 c -0.44214,6.748187 0.86626,16.632266 3.83498,27.606144 0.52786,1.95268 1.10255,3.93987 1.73419,5.94985 0.39253,1.24117 0.79745,2.46296 1.21253,3.66578 -0.24363,0.35824 -0.48896,0.71421 -0.71906,1.07154 -3.70413,5.67665 -5.8692,11.04133 -6.41512,15.70646 -1.56557,-5.24263 -2.74426,-10.98505 -3.41199,-17.07408 -0.18949,-1.74469 -0.33782,-3.46986 -0.43708,-5.17439 -0.7309,-12.381542 0.88543,-23.605382 4.20155,-31.751304 z m -73.921907,8.783769 c 0.08449,-0.002 0.167783,0 0.253783,0 0,-5e-6 16.679309,0 16.679309,0 1.42571,-5e-6 2.528263,0.267206 3.313303,0.803651 0.780526,0.539607 1.073232,1.23757 0.888246,2.086676 5e-6,5e-6 -1.987981,8.981158 -1.987981,8.981158 0,1e-5 -5.879349,0 -5.879349,0 6e-6,1e-5 1.931586,-8.741472 1.931586,-8.741472 -6e-6,0 -14.719525,0 -14.719525,0 -5e-6,0 -5.315387,24.024972 -5.315387,24.024972 6e-6,0 -1.917485,8.69918 -1.917485,8.69918 0,1e-5 14.705427,0 14.705427,0 0,1e-5 0.0141,-0.0564 0.0141,-0.0564 0,1e-5 2.946722,-13.30961 2.946722,-13.30961 0,0 -6.908588,0 -6.908588,0 0,0 0.66266,-3.00312 0.66266,-3.00312 -3e-6,0 12.787942,0 12.787942,0 0,0 -3.665784,16.60882 -3.665784,16.60882 -0.04963,0.23641 -0.136477,0.45061 -0.253785,0.66266 -0.302284,0.55043 -0.829593,1.02191 -1.565006,1.40992 -1.019645,0.5369 -2.240076,0.80365 -3.665783,0.80365 0,0 -16.66521,0 -16.66521,0 -1.425713,0 -2.528264,-0.26676 -3.313304,-0.80365 -0.780523,-0.5369 -1.07774,-1.22257 -0.888246,-2.07258 3e-6,-10e-6 7.345663,-33.203528 7.345663,-33.203528 0.189489,-0.849103 0.780534,-1.547074 1.804694,-2.086676 0.03609,-0.0194 0.0767,-0.0238 0.112791,-0.0423 0.934779,-0.468233 2.031834,-0.731422 3.299206,-0.761355 z m 26.139849,0 c -6e-6,-5e-6 20.99365,0 20.99365,0 1.407665,-5e-6 2.514163,0.267206 3.299203,0.803651 0.789562,0.539607 1.091845,1.23757 0.902348,2.086676 5e-6,5e-6 -3.919566,17.708548 -3.919566,17.708548 -0.184976,0.84368 -0.790118,1.53207 -1.818791,2.07257 -1.028674,0.54231 -2.239513,0.81775 -3.651684,0.81775 -5e-6,0 -15.255293,0 -15.255293,0 0,0 -2.946725,13.29551 -2.946725,13.29551 0,10e-6 -0.479372,2.18538 -0.479372,2.18538 2e-6,0 -5.75246,0 -5.75246,0 0,0 0.437073,-1.97389 0.437073,-1.97389 0,10e-6 8.191617,-36.996195 8.191617,-36.996195 z m 29.001976,0 c -3e-6,-5e-6 5.752462,0 5.752462,0 0,-5e-6 -6.513817,29.424945 -6.513817,29.424945 6e-6,1e-5 -1.424014,6.42922 -1.424014,6.42922 0,1e-5 13.760781,0 13.760781,0 0.14438,1.0553 0.313,2.09175 0.49347,3.11592 0,0 -20.697572,0 -20.697572,0 6e-6,0 1.635504,-7.38797 1.635504,-7.38797 5e-6,0 6.993186,-31.582115 6.993186,-31.582115 z M 70.97895,92.280274 c 5e-6,0 -3.820875,17.229176 -3.820875,17.229176 0,-1e-5 14.338851,0 14.338851,0 -3e-6,-1e-5 3.806772,-17.229176 3.806772,-17.229176 5e-6,0 -14.324748,0 -14.324748,0 z M 58.924163,130.82739 c 0.05627,-0.002 0.112511,0 0.169193,0 0.667737,0 1.250876,0.1173 1.720096,0.33837 0.500803,0.23461 0.858922,0.58314 1.057439,1.04334 0.194006,0.44667 0.244761,0.95367 0.140988,1.50861 0,1e-5 -0.04229,0.21149 -0.04229,0.21149 2e-6,0 -1.649603,0 -1.649603,0 -6e-6,0 0.0141,-0.19739 0.0141,-0.19739 0.04265,-0.38773 -0.0054,-0.69262 -0.155093,-0.90234 -0.0195,-0.0263 -0.04777,-0.061 -0.0705,-0.0846 -0.03722,-0.038 -0.09313,-0.0814 -0.140989,-0.11279 -0.230817,-0.14539 -0.59188,-0.22559 -1.057439,-0.22559 -0.618106,1e-5 -1.079994,0.10772 -1.395814,0.32428 -0.3068,0.21206 -0.500804,0.44892 -0.563968,0.73316 -0.06317,0.28875 0.0406,0.44046 0.112795,0.52167 0.0021,0.002 0.01135,0.0116 0.0141,0.0141 0.09142,0.0779 0.408877,0.26055 1.395818,0.49347 0.893318,0.21656 1.484926,0.41113 1.818793,0.57807 0.50532,0.25716 0.858359,0.59047 1.043342,1.00104 0.184973,0.40606 0.225584,0.88147 0.112792,1.39581 -0.112792,0.5008 -0.368271,0.9627 -0.747257,1.39582 -0.374471,0.43313 -0.851025,0.77602 -1.424017,1.01514 -0.568484,0.23461 -1.192223,0.36658 -1.832891,0.36658 -0.812112,-1e-5 -1.464053,-0.12295 -1.973881,-0.36658 -0.532387,-0.25266 -0.916448,-0.65138 -1.142032,-1.17023 -0.216564,-0.50532 -0.26281,-1.07887 -0.140994,-1.706 0,0 0.0423,-0.19739 0.0423,-0.19739 0,0 1.621404,0 1.621404,0 0,0 -0.0141,0.19739 -0.0141,0.19739 -0.04061,0.37447 -5.29e-4,0.67676 0.09869,0.90235 0.09474,0.21657 0.275217,0.3959 0.563964,0.53577 0.306795,0.14888 0.690293,0.22558 1.127932,0.22558 0.392523,0 0.751208,-0.066 1.071539,-0.18328 0.31582,-0.1128 0.566785,-0.26169 0.747255,-0.45118 0.175953,-0.1895 0.279164,-0.3897 0.324281,-0.60627 0.04512,-0.194 0.0344,-0.35811 -0.0423,-0.49346 -0.08572,-0.14437 -0.255476,-0.2724 -0.521666,-0.38068 0,0 -1.381723,-0.40888 -1.381723,-0.40888 -0.771503,-0.194 -1.290915,-0.37898 -1.593201,-0.56396 -0.410573,-0.24363 -0.706652,-0.55608 -0.860052,-0.93055 -0.153398,-0.36997 -0.169752,-0.77997 -0.07049,-1.22663 0.103769,-0.47824 0.33443,-0.93336 0.690856,-1.33942 0.360945,-0.41057 0.826775,-0.73259 1.38172,-0.94464 0.490652,-0.18399 1.006994,-0.29189 1.550906,-0.31018 z m 14.804125,0.0282 c 0.08923,-0.007 0.173133,0 0.267883,0 2e-6,0 1.01514,0.1128 1.01514,0.1128 -3e-6,0 0.338378,0.0282 0.338378,0.0282 5e-6,0 -0.493469,1.25482 -0.493469,1.25482 -3e-6,0 -0.09869,0.19739 -0.09869,0.19739 0,-1e-5 -0.775451,-0.0705 -0.775451,-0.0705 -0.228973,0 -0.397174,0.0353 -0.507572,0.1128 -0.0073,0.006 -0.02143,0.0223 -0.0282,0.0282 -0.01479,0.013 -0.03966,0.0356 -0.0564,0.0564 -0.06789,0.089 -0.15058,0.24815 -0.211487,0.53577 -5e-6,0 -0.02933,0.12182 -0.0564,0.22559 0.356429,0 1.212525,0 1.212525,0 0,0 -0.310179,1.39581 -0.310179,1.39581 0,0 -0.886555,0 -1.184328,0 -0.09024,0.40606 -1.19843,5.37178 -1.19843,5.37178 -5e-6,0 -1.635503,0 -1.635503,0 -6e-6,0 1.063077,-4.77172 1.19843,-5.37178 -0.275222,0 -0.944645,0 -0.944645,0 0,0 0.310182,-1.39581 0.310182,-1.39581 3e-6,0 0.673375,0 0.930542,0 0.04512,-0.19401 0.112792,-0.43708 0.112792,-0.43708 0.09926,-0.45117 0.203028,-0.77545 0.338378,-1.00104 0.184989,-0.3113 0.446104,-0.57186 0.77546,-0.76135 0.271269,-0.15763 0.614357,-0.25187 1.00104,-0.28199 z m 3.905467,0.0705 c -5e-6,0 -0.427487,1.92369 -0.535768,2.41096 0.315817,0 1.057436,0 1.057436,0 0,0 -0.310179,1.39581 -0.310179,1.39581 -5e-6,0 -0.777713,0 -1.057439,0 -0.08573,0.38801 -0.761354,3.3979 -0.761354,3.3979 5e-6,0 -0.0564,0.36151 -0.0564,0.46528 7.4e-5,0.003 -2.64e-4,0.0116 0,0.0141 2.23e-4,0.001 -2.64e-4,0.0132 0,0.0141 5.29e-4,7.9e-4 0.01355,-5.3e-4 0.0141,0 0,-10e-6 0.169193,0.0141 0.169193,0.0141 0,0 0.775454,-0.0564 0.775454,-0.0564 0,0 -0.0846,1.25482 -0.0846,1.25482 5e-6,0 0.0141,0.22559 0.0141,0.22559 -5e-6,-1e-5 -1.113838,0.12689 -1.113838,0.12689 -0.442145,-1e-5 -0.766432,-0.0722 -1.00104,-0.22558 -0.24814,-0.16244 -0.39252,-0.37787 -0.451173,-0.64857 -0.009,-0.0496 -0.0282,-0.12182 -0.0282,-0.22558 0,-0.20303 0.03835,-0.54649 0.16919,-1.14203 5e-6,0 0.592728,-2.65516 0.719058,-3.21462 -0.212045,0 -0.775454,0 -0.775454,0 5e-6,0 0.310179,-1.39581 0.310179,-1.39581 -5e-6,0 0.549868,0 0.775457,0 0.07218,-0.32484 0.324278,-1.43812 0.324278,-1.43812 0,1e-5 1.311225,-0.69086 1.311225,-0.69086 -2e-6,1e-5 0.535768,-0.28198 0.535768,-0.28198 z m -51.955417,0.0564 c 5e-6,0 6.344624,0 6.344624,0 0,0 -0.352478,1.5791 -0.352478,1.5791 0,1e-5 -4.232569,0 -4.638625,0 -0.07218,0.32034 -0.361503,1.61746 -0.465273,2.08668 0.586529,0 4.018262,0 4.018262,0 0,0 -0.352481,1.5791 -0.352481,1.5791 -3e-6,0 -3.612203,0 -4.018261,0 -0.08572,0.39252 -0.86005,3.87727 -0.86005,3.87727 6e-6,0 -1.705996,0 -1.705996,0 3e-6,0 2.030278,-9.12215 2.030278,-9.12215 z m 8.501793,2.22767 c 0.06368,-0.008 0.133239,0 0.19739,0 0.406056,0 0.781095,0.1235 1.142034,0.38067 0,10e-6 0.225584,0.15509 0.225584,0.15509 0,0 -0.874146,1.43812 -0.874146,1.43812 0,-1e-5 -0.239684,-0.16919 -0.239684,-0.16919 -0.175958,-0.11279 -0.36545,-0.16919 -0.563967,-0.16919 -0.171447,0 -0.331049,0.0609 -0.493472,0.16919 -0.171442,0.11279 -0.314695,0.26224 -0.422973,0.46527 -0.189495,0.34741 -0.328232,0.73654 -0.422976,1.15613 0,0 -0.761355,3.46839 -0.761355,3.46839 0,0 -1.635504,0 -1.635504,0 0,0 1.508613,-6.76759 1.508613,-6.76759 5e-6,0 1.522709,0 1.522709,0 0,0 -0.05245,0.20528 -0.0705,0.28198 0.07219,-0.0541 0.148323,-0.12859 0.21149,-0.16919 0.218538,-0.13041 0.44936,-0.21176 0.676756,-0.23968 z m 4.850114,0 c 0.09848,-0.007 0.195419,0 0.296085,0 0.920395,0 1.61689,0.32258 2.072574,0.95874 0.284236,0.41056 0.437078,0.91813 0.437078,1.52271 0,0.33386 -0.04117,0.69311 -0.126891,1.08563 0,0 -0.126897,0.49347 -0.126897,0.49347 0,0 -4.136128,0 -4.596326,0 -0.009,0.0948 -0.0141,0.19626 -0.0141,0.28199 0,0.35192 0.07219,0.62882 0.225586,0.83185 0.07289,0.0993 0.157401,0.18864 0.253786,0.25378 0.181711,0.11851 0.41628,0.18329 0.690859,0.18329 0.333872,0 0.627128,-0.0919 0.902345,-0.26788 0.261687,-0.16694 0.512086,-0.43369 0.733158,-0.80365 0,-1e-5 1.748295,0 1.748295,0 0,-1e-5 -0.155088,0.33837 -0.155088,0.33837 -0.33387,0.67677 -0.799706,1.20464 -1.38172,1.57911 -0.582012,0.37447 -1.277385,0.57806 -2.04438,0.57806 -0.997093,0 -1.739273,-0.32258 -2.199471,-0.95874 -0.455681,-0.62262 -0.553812,-1.48323 -0.310179,-2.56605 0.243637,-1.10086 0.729774,-1.98064 1.438114,-2.59424 0.634889,-0.5505 1.355315,-0.85584 2.157172,-0.91644 z m 7.345667,0 c 0.09847,-0.007 0.195413,0 0.296079,0 0.920398,0 1.616896,0.32258 2.07258,0.95874 0.284239,0.41056 0.437073,0.91813 0.437073,1.52271 0,0.32935 -0.04117,0.68352 -0.126895,1.07153 0,1e-5 -0.126888,0.50757 -0.126888,0.50757 0,0 -4.136134,0 -4.596329,0 -0.0045,0.0632 -0.0096,0.12013 -0.0141,0.18329 -0.0034,0.0237 0.0016,0.0596 0,0.0846 -1.32e-4,0.004 0,0.0102 0,0.0141 0,0.0677 0.0096,0.13422 0.0141,0.19739 0.02254,0.25716 0.08967,0.47204 0.211487,0.63446 0.0232,0.0316 0.045,0.0706 0.0705,0.0987 0.206642,0.22107 0.49911,0.33837 0.874148,0.33837 0.333873,0 0.631643,-0.0919 0.902349,-0.26788 0.261683,-0.16693 0.51208,-0.43369 0.733155,-0.80365 0,-1e-5 1.762395,0 1.762395,0 -3e-6,-1e-5 -0.169191,0.33838 -0.169191,0.33838 -0.333867,0.67676 -0.799703,1.20463 -1.381717,1.5791 -0.582015,0.37448 -1.277385,0.57807 -2.044378,0.57807 -0.99709,-1e-5 -1.739273,-0.32259 -2.19947,-0.95874 -0.297776,-0.40606 -0.437076,-0.92322 -0.437076,-1.53681 0,-0.0948 0.0051,-0.19683 0.0141,-0.29608 0.01805,-0.23461 0.05414,-0.47148 0.112795,-0.73316 0.243639,-1.09635 0.715674,-1.98065 1.424014,-2.59425 0.634886,-0.5505 1.369417,-0.85584 2.171274,-0.91644 z m 20.006709,0 c 0.100764,-0.008 0.193442,0 0.296082,0 0.938443,0 1.659758,0.31751 2.128975,0.94464 0.464715,0.62712 0.577504,1.47308 0.338379,2.53784 -0.184979,0.83017 -0.452298,1.50072 -0.817748,1.98799 -0.365458,0.48727 -0.831289,0.88543 -1.381723,1.15613 -0.54591,0.2707 -1.123984,0.40887 -1.705996,0.40887 -0.956488,0 -1.668778,-0.3271 -2.128975,-0.95874 -0.297778,-0.40154 -0.451173,-0.9187 -0.451173,-1.5368 5e-6,-0.33387 0.03666,-0.68861 0.126894,-1.08564 0.270708,-1.20915 0.823389,-2.1301 1.635503,-2.72114 0.596109,-0.4303 1.254427,-0.67894 1.959782,-0.73315 z m 24.772231,0 c 0.118957,-0.007 0.229111,0 0.352478,0 0.568481,0 1.01514,0.0575 1.353521,0.19738 0.360939,0.14438 0.616979,0.34853 0.761354,0.59217 0.13987,0.23009 0.21149,0.51264 0.21149,0.86004 2e-6,1e-5 -0.169196,1.02924 -0.169196,1.02924 8e-6,0 -0.310176,1.39582 -0.310176,1.39582 -0.2662,1.19109 -0.324845,1.63776 -0.338384,1.8047 -0.01355,0.22559 0.0073,0.44553 0.0705,0.64856 6e-6,-1e-5 0.112792,0.36657 0.112792,0.36657 6e-6,0 -1.6637,0 -1.6637,0 -5e-6,0 -0.0705,-0.21148 -0.0705,-0.21148 -0.02707,-0.0993 -0.01918,-0.22559 -0.0282,-0.33838 -0.315819,0.194 -0.632206,0.36601 -0.916445,0.46527 -0.419587,0.14438 -0.854972,0.22558 -1.297122,0.22558 -0.76699,0 -1.334908,-0.19964 -1.677802,-0.59216 -0.261679,-0.28875 -0.380675,-0.64179 -0.380675,-1.04334 -5e-6,-0.1534 0.02029,-0.31244 0.05639,-0.47937 0.0767,-0.34289 0.216001,-0.66041 0.437076,-0.94464 0.216564,-0.27974 0.472607,-0.50983 0.761354,-0.67676 0.279734,-0.16693 0.591603,-0.28537 0.916448,-0.36658 -5e-6,0 1.001041,-0.16919 1.001041,-0.16919 0.771509,-0.0902 1.347314,-0.20246 1.762395,-0.32428 0.009,-0.0451 0.0282,-0.0987 0.0282,-0.0987 0.06542,-0.29029 0.05724,-0.50849 -0.0141,-0.62036 -0.0052,-0.007 -0.02228,-0.022 -0.0282,-0.0282 -0.01524,-0.0162 -0.03864,-0.0418 -0.0564,-0.0564 -0.169691,-0.13429 -0.459068,-0.19739 -0.845947,-0.19739 -0.43764,0 -0.761355,0.0716 -0.986944,0.21148 -0.221072,0.13987 -0.425796,0.39591 -0.606263,0.76136 -3e-6,0 -1.705999,0 -1.705999,0 5e-6,0 0.155091,-0.33838 0.155091,-0.33838 0.203022,-0.46923 0.444971,-0.85836 0.747257,-1.15613 0.302286,-0.29778 0.710597,-0.52844 1.184328,-0.69086 0.363051,-0.11985 0.759486,-0.19937 1.18433,-0.22558 z m 7.148277,0 c 0.06362,-0.008 0.133234,0 0.197387,0 0.410562,0 0.795192,0.1235 1.156131,0.38067 6e-6,10e-6 0.211487,0.15509 0.211487,0.15509 3e-6,0 -0.874146,1.43812 -0.874146,1.43812 2e-6,-1e-5 -0.239686,-0.16919 -0.239686,-0.16919 -0.175956,-0.11279 -0.355867,-0.16919 -0.549868,-0.16919 -0.171453,0 -0.340635,0.0609 -0.507574,0.16919 -0.171442,0.11279 -0.296079,0.26224 -0.408871,0.46527 -0.184986,0.34741 -0.328232,0.73654 -0.422976,1.15613 -6e-6,0 -0.775454,3.46839 -0.775454,3.46839 5e-6,0 -1.635501,0 -1.635501,0 0,0 1.508607,-6.76759 1.508607,-6.76759 -3e-6,0 1.522708,0 1.522708,0 0,0 -0.03835,0.20528 -0.05639,0.28198 0.07218,-0.0541 0.143809,-0.12859 0.211487,-0.16919 0.215008,-0.13041 0.435427,-0.21176 0.662662,-0.23968 z m 4.836011,0 c 0.0984,-0.007 0.19542,0 0.29608,0 0.9204,0 1.6214,0.32258 2.07258,0.95874 0.28875,0.41056 0.43708,0.91813 0.43708,1.52271 -1e-5,0.33386 -0.0553,0.69311 -0.141,1.08563 0,0 -0.11279,0.49347 -0.11279,0.49347 0,0 -4.14065,0 -4.59633,0 -0.009,0.0948 -0.0282,0.19626 -0.0282,0.28199 0,0.35192 0.0767,0.62882 0.22559,0.83185 0.0232,0.0316 0.059,0.0706 0.0846,0.0987 0.0148,0.0158 0.0408,0.0417 0.0564,0.0564 0.20171,0.18336 0.4762,0.28198 0.81775,0.28198 0.33387,0 0.62713,-0.0919 0.90235,-0.26788 0.26168,-0.16694 0.50757,-0.43369 0.73316,-0.80365 -1e-5,-1e-5 1.76239,0 1.76239,0 0,-1e-5 -0.16919,0.33837 -0.16919,0.33837 -0.33387,0.67677 -0.80421,1.20464 -1.38172,1.57911 -0.58652,0.37447 -1.27287,0.57806 -2.04438,0.57806 -0.99708,0 -1.72517,-0.32258 -2.185366,-0.95874 -0.455692,-0.62262 -0.563404,-1.48323 -0.324281,-2.56605 0.243631,-1.10086 0.715677,-1.98064 1.424017,-2.59424 0.6389,-0.5505 1.37015,-0.85584 2.17127,-0.91644 z m -24.687637,0.12689 c 5e-6,0 1.677805,0 1.677805,0 5e-6,0 0.206972,4.016 0.211484,4.07465 0.06768,-0.14381 0.120184,-0.26481 0.126896,-0.28198 3e-6,1e-5 1.846988,-3.79267 1.846988,-3.79267 5e-6,0 1.536808,0 1.536808,0 -2e-6,0 0.140992,3.9675 0.140992,3.99006 0.04512,-0.0812 2.100775,-3.99006 2.100775,-3.99006 -5e-6,0 1.663703,0 1.663703,0 -3e-6,0 -3.665784,6.76759 -3.665784,6.76759 6e-6,0 -1.508609,0 -1.508609,0 0,0 -0.146066,-3.66972 -0.155091,-3.87727 -0.622625,1.27683 -1.889291,3.87727 -1.889291,3.87727 0,0 -1.550903,0 -1.550903,0 0,0 -0.535773,-6.76759 -0.535773,-6.76759 z m -39.393058,1.28302 c -0.388655,0.0164 -0.741614,0.1565 -1.071534,0.42297 -0.261678,0.20755 -0.438205,0.49235 -0.578069,0.80366 0,0 2.777535,0 2.777535,0 0.0045,-0.0496 0.0141,-0.10997 0.0141,-0.15509 -5e-6,-0.25717 -0.04568,-0.45681 -0.126892,-0.59217 -0.198511,-0.32485 -0.492905,-0.47937 -0.930544,-0.47937 -0.02622,0 -0.05868,-0.001 -0.0846,0 z m 7.345661,0 c -0.388652,0.0164 -0.741614,0.1565 -1.071536,0.42297 -0.261683,0.20755 -0.433686,0.49235 -0.578062,0.80366 0,0 2.777533,0 2.777533,0 0.0045,-0.0496 0.0141,-0.10997 0.0141,-0.15509 -3e-6,-0.25717 -0.04117,-0.45681 -0.126894,-0.59217 -0.03941,-0.066 -0.09272,-0.1316 -0.140991,-0.18329 -0.188381,-0.19465 -0.447649,-0.29608 -0.789551,-0.29608 -0.02622,0 -0.05868,-0.001 -0.0846,0 z m 56.819634,0 c -0.39967,0.0123 -0.77292,0.14762 -1.11384,0.42297 -0.25717,0.20755 -0.43369,0.49235 -0.57807,0.80366 1e-5,0 2.76344,0 2.76344,0 0.004,-0.0496 0.0141,-0.10997 0.0141,-0.15509 0,-0.25717 -0.0412,-0.45681 -0.12689,-0.59217 -0.194,-0.32033 -0.49291,-0.47486 -0.93054,-0.47937 -0.013,1.4e-4 -0.0153,-2.6e-4 -0.0282,0 z m -36.939811,0.0282 c -0.372964,0.0443 -0.719762,0.21445 -1.043339,0.50757 -0.388006,0.35192 -0.669428,0.9046 -0.831848,1.6355 -0.06768,0.3068 -0.0987,0.56904 -0.0987,0.80365 5e-6,0.32033 0.06147,0.57186 0.18329,0.76136 0.03243,0.0486 0.07545,0.10004 0.112794,0.14099 0.200565,0.21296 0.48064,0.32428 0.83185,0.32428 0.455682,0 0.857229,-0.16975 1.240724,-0.52167 0.388017,-0.35643 0.664917,-0.91475 0.83185,-1.6637 0.153406,-0.68579 0.131969,-1.19786 -0.08459,-1.52271 -0.207539,-0.31582 -0.510953,-0.46527 -0.930543,-0.46527 -0.0712,0 -0.142425,-0.008 -0.211488,0 z m 25.477187,2.46735 c -0.38349,0.10377 -0.813242,0.19119 -1.381718,0.26789 -0.424098,0.0632 -0.72639,0.12971 -0.902348,0.19739 -0.153395,0.0632 -0.276908,0.15057 -0.380677,0.26788 -0.09926,0.11278 -0.165804,0.23123 -0.197385,0.36658 -0.009,0.0541 -0.0141,0.10997 -0.0141,0.15509 0,0.004 -8.2e-5,0.0105 0,0.0141 5.29e-4,0.0107 -0.0011,0.0319 0,0.0423 0.0028,0.0205 0.0085,0.0514 0.0141,0.0705 0.0021,0.006 0.01177,0.0221 0.0141,0.0282 0.0049,0.0121 0.008,0.0307 0.0141,0.0423 0.0064,0.0115 0.02061,0.0314 0.0282,0.0423 0.0118,0.0163 0.02791,0.0412 0.0423,0.0564 0.112794,0.12633 0.337815,0.18329 0.662659,0.18329 0.356434,0 0.699321,-0.0677 1.015141,-0.22559 0.311314,-0.15339 0.562274,-0.38237 0.747254,-0.64856 0.135359,-0.18949 0.243637,-0.48106 0.338381,-0.86004 z"
       style="fill:#000001;fill-opacity:1;fill-rule:evenodd;stroke:none;stroke-width:0.26458331pt;stroke-linecap:butt;stroke-linejoin:miter"
       inkscape:connector-curvature="0" />
    <path
       style="fill:#bd0000;fill-opacity:1;fill-rule:evenodd;stroke:none;stroke-width:0.26458331pt;stroke-linecap:butt;stroke-linejoin:miter"
       id="path2583"
       d="m 103.26987,134.62499 c -0.005,0 -0.009,0 -0.0135,0 0.43764,0.005 0.72639,0.1534 0.92039,0.47373 0.0857,0.13536 0.13084,0.33838 0.13084,0.59555 0,0.0451 -0.009,0.10377 -0.0135,0.1534 0,0 0.018,0 0.018,0 0,-0.0496 0.009,-0.10828 0.009,-0.1534 0,-0.25717 -0.0406,-0.46019 -0.12633,-0.59555 -0.194,-0.32484 -0.48726,-0.47373 -0.9249,-0.47373 z"
       inkscape:connector-curvature="0" />
    <g
       transform="matrix(0.45117332,0,0,0.45117332,11.449149,155.66815)"
       style="fill:#000000;fill-opacity:1;fill-rule:evenodd;stroke:none;stroke-width:1.00000003pt;stroke-linecap:butt;stroke-linejoin:miter"
       id="g2587">
      <path
         style="fill:#000000;fill-opacity:1"
         d="m 0,36 c 0,0 7.46,0 7.46,0 0,0 3.35,-14 3.35,-14 0,0 12.12,0 12.12,0 0,0 1.56,-6 1.56,-6 0,0 -12.17,0 -12.17,0 0,0 2.02,-9 2.02,-9 0,0 12.95,0 12.95,0 0,0 1.56,-7 1.56,-7 C 28.85,0 8.4,0 8.4,0 8.4,0 0,36 0,36 Z"
         id="path2589"
         inkscape:connector-curvature="0" />
    </g>
    <g
       transform="matrix(0.45117332,0,0,0.45117332,23.157094,160.17988)"
       style="fill:#000000;fill-opacity:1;fill-rule:evenodd;stroke:none;stroke-width:1.00000003pt;stroke-linecap:butt;stroke-linejoin:miter"
       id="g2591">
      <path
         style="fill:#000000;fill-opacity:1"
         d="m 7.51,26 c 0,0 2.24,-9.4 2.24,-9.4 1.18,-5.09 3.67,-9.6 8.38,-9.6 0.42,0 0.83,0.21 1.14,0.26 0,0 1.82,-7.21 1.82,-7.21 -0.42,0 -0.88,-0.05 -1.4,-0.05 -3.47,0 -6.38,2.44 -8.32,5.94 0,0 -0.2,0 -0.2,0 C 11.46,4.23 11.71,2.61 11.9,1 11.9,1 5.47,1 5.47,1 5.1,3.08 4.53,7.15 3.66,10.82 3.66,10.82 0,26 0,26 c 0,0 7.51,0 7.51,0 z"
         id="path2593"
         inkscape:connector-curvature="0" />
    </g>
    <g
       transform="matrix(0.45117332,0,0,0.45117332,32.464819,160.17988)"
       style="fill:#000000;fill-opacity:1;fill-rule:evenodd;stroke:none;stroke-width:1.00000003pt;stroke-linecap:butt;stroke-linejoin:miter"
       id="g2595">
      <path
         style="fill:#000000;fill-opacity:1"
         d="M 20.06,19.25 C 17.99,20.26 15.63,20 12.88,20 10.71,20 9.03,19.62 8.11,18.88 7.63,18.07 7.43,16.81 7.47,16 17.6,16.27 23.99,13.93 24.31,7.53 24.55,2.7 21.02,0 15.89,0 6.73,0 0.73,8.08 0.34,15.86 0,22.65 3.52,26 10.78,26 c 2.79,0 6.49,-0.32 9.52,-1.23 0,0 -0.24,-5.52 -0.24,-5.52 z M 17.32,7.53 C 17.2,9.91 14.26,10.05 8.47,10 9.1,7.91 11.22,6 14.69,6 c 1.71,0 2.69,0.65 2.63,1.53 z"
         id="path2597"
         inkscape:connector-curvature="0" />
    </g>
    <g
       transform="matrix(0.45117332,0,0,0.45117332,44.429939,160.17988)"
       style="fill:#000000;fill-opacity:1;fill-rule:evenodd;stroke:none;stroke-width:1.00000003pt;stroke-linecap:butt;stroke-linejoin:miter"
       id="g2599">
      <path
         style="fill:#000000;fill-opacity:1"
         d="M 20.05,19.25 C 17.98,20.26 15.62,20 12.88,20 10.7,20 9.03,19.62 8.11,18.88 7.63,18.07 7.42,16.81 7.46,16 17.6,16.27 23.98,13.93 24.31,7.53 24.55,2.7 21.02,0 15.89,0 6.72,0 0.72,8.08 0.33,15.86 0,22.65 3.52,26 10.77,26 c 2.8,0 6.5,-0.32 9.53,-1.23 0,0 -0.25,-5.52 -0.25,-5.52 z M 17.32,7.53 C 17.2,9.91 14.26,10.05 8.46,10 9.1,7.91 11.21,6 14.68,6 c 1.71,0 2.7,0.65 2.64,1.53 z"
         id="path2601"
         inkscape:connector-curvature="0" />
    </g>
    <g
       transform="matrix(0.45117332,0,0,0.45117332,60.631567,160.17988)"
       style="fill:#000000;fill-opacity:1;fill-rule:evenodd;stroke:none;stroke-width:1.00000003pt;stroke-linecap:butt;stroke-linejoin:miter"
       id="g2603">
      <path
         style="fill:#000000;fill-opacity:1"
         d="M 22.74,26 C 22.8,22.83 23.56,17.85 24.35,14.58 24.35,14.58 27.56,1 27.56,1 25.52,0.31 22.34,0 19.28,0 6.86,0 0.7,9.2 0.27,17.82 0,23.23 2.93,26 7.49,26 c 2.95,0 6.28,-1.43 8.87,-5.73 0,0 0.11,0 0.11,0 -0.2,2.07 -0.44,4.08 -0.57,5.73 0,0 6.84,0 6.84,0 z M 17.61,11.72 C 16.15,18.08 13.17,20 10.95,20 8.88,20 7.98,18.53 8.1,16.39 8.34,11.56 12.16,6 16.98,6 c 0.78,0 1.39,-0.14 1.96,-0.28 0,0 -1.33,6 -1.33,6 z"
         id="path2605"
         inkscape:connector-curvature="0" />
    </g>
    <g
       transform="matrix(0.45117332,0,0,0.45117332,73.09749,160.17988)"
       style="fill:#000000;fill-opacity:1;fill-rule:evenodd;stroke:none;stroke-width:1.00000003pt;stroke-linecap:butt;stroke-linejoin:miter"
       id="g2607">
      <path
         style="fill:#000000;fill-opacity:1"
         d="m 0,24.82 c 1.44,1.12 4.46,1.13 7.61,1.18 6.73,0.05 11.81,-2.89 12.11,-8.29 0.17,-3.6 -2.62,-5.73 -5.35,-7.16 C 12.4,9.6 11.41,8.69 11.46,7.63 11.53,6.2 12.87,6 14.84,6 c 2.22,0 4,0.27 5.02,0.47 0,0 2.02,-5.42 2.02,-5.42 C 20.73,0.36 18.43,0 15.48,0 8.95,0 4.17,3.45 3.9,8.69 c -0.16,3.24 2.17,5.42 4.99,6.9 2.28,1.17 3.06,2.07 3,3.34 C 11.82,20.21 10.68,20 8.61,20 6.18,20 3.49,19.68 2.07,19.46 2.07,19.46 0,24.82 0,24.82 Z"
         id="path2609"
         inkscape:connector-curvature="0" />
    </g>
    <g
       transform="matrix(0.45117332,0,0,0.45117332,87.738049,155.21698)"
       style="fill:#000000;fill-opacity:1;fill-rule:evenodd;stroke:none;stroke-width:1.00000003pt;stroke-linecap:butt;stroke-linejoin:miter"
       id="g2611">
      <path
         style="fill:#000000;fill-opacity:1"
         d="m 7.45,37 c 0,0 6.05,-25 6.05,-25 0,0 -7.41,0 -7.41,0 0,0 -6.09,25 -6.09,25 0,0 7.45,0 7.45,0 z M 10.92,9 C 13.46,9 15.72,6.9 15.86,3.3 15.98,0.86 14.4,0 12.07,0 9.64,0 7.42,1.58 7.29,3.94 7.17,6.32 8.75,9 10.92,9 Z"
         id="path2613"
         inkscape:connector-curvature="0" />
    </g>
    <g
       transform="matrix(0.45117332,0,0,0.45117332,94.18531,160.49119)"
       style="fill:#000000;fill-opacity:1;fill-rule:evenodd;stroke:none;stroke-width:1.00000003pt;stroke-linecap:butt;stroke-linejoin:miter"
       id="g2615">
      <path
         style="fill:#000000;fill-opacity:1"
         d="m 7.46,25.31 c 0,0 2.64,-11.26 2.64,-11.26 1.37,-5.73 4.32,-7.74 6.75,-7.74 1.92,0 2.48,0.82 2.39,2.01 -0.05,0.96 -0.2,1.97 -0.4,2.87 0,0 -3.36,14.12 -3.36,14.12 0,0 7.46,0 7.46,0 0,0 3.54,-14.81 3.54,-14.81 C 26.75,9.22 27.05,7.31 27.11,6.15 27.33,1.64 25.08,0 20.94,0 c -3.32,0 -6.55,1.54 -9.1,4.88 0,0 -0.1,0 -0.1,0 0,0 0.68,-4.57 0.68,-4.57 0,0 -6.58,0 -6.58,0 C 5.41,2.45 4.86,5.04 4.08,8.06 4.08,8.06 0,25.31 0,25.31 c 0,0 7.46,0 7.46,0 z"
         id="path2617"
         inkscape:connector-curvature="0" />
    </g>
    <g
       transform="matrix(0.45117332,0,0,0.45117332,112.03373,155.66815)"
       style="fill:#000000;fill-opacity:1;fill-rule:evenodd;stroke:none;stroke-width:1.00000003pt;stroke-linecap:butt;stroke-linejoin:miter"
       id="g2619">
      <path
         style="fill:#000000;fill-opacity:1"
         d="m 0,36 c 0,0 7.46,0 7.46,0 0,0 3.36,-14 3.36,-14 0,0 12.11,0 12.11,0 0,0 1.56,-6 1.56,-6 0,0 -12.17,0 -12.17,0 0,0 2.02,-9 2.02,-9 0,0 12.95,0 12.95,0 0,0 1.56,-7 1.56,-7 C 28.85,0 8.4,0 8.4,0 8.4,0 0,36 0,36 Z"
         id="path2621"
         inkscape:connector-curvature="0" />
    </g>
    <g
       transform="matrix(0.45117332,0,0,0.45117332,123.74168,160.17988)"
       style="fill:#000000;fill-opacity:1;fill-rule:evenodd;stroke:none;stroke-width:1.00000003pt;stroke-linecap:butt;stroke-linejoin:miter"
       id="g2623">
      <path
         style="fill:#000000;fill-opacity:1"
         d="m 7.51,26 c 0,0 2.24,-9.4 2.24,-9.4 1.18,-5.09 3.67,-9.6 8.38,-9.6 0.42,0 0.83,0.21 1.14,0.26 0,0 1.82,-7.21 1.82,-7.21 -0.42,0 -0.88,-0.05 -1.4,-0.05 -3.47,0 -6.38,2.44 -8.32,5.94 0,0 -0.2,0 -0.2,0 C 11.46,4.23 11.71,2.61 11.9,1 11.9,1 5.47,1 5.47,1 5.11,3.08 4.53,7.15 3.66,10.82 3.66,10.82 0,26 0,26 c 0,0 7.51,0 7.51,0 z"
         id="path2625"
         inkscape:connector-curvature="0" />
    </g>
    <g
       transform="matrix(0.45117332,0,0,0.45117332,133.0494,160.17988)"
       style="fill:#000000;fill-opacity:1;fill-rule:evenodd;stroke:none;stroke-width:1.00000003pt;stroke-linecap:butt;stroke-linejoin:miter"
       id="g2627">
      <path
         style="fill:#000000;fill-opacity:1"
         d="M 20.06,19.25 C 17.99,20.26 15.63,20 12.88,20 10.71,20 9.03,19.62 8.11,18.88 7.63,18.07 7.43,16.81 7.47,16 17.6,16.27 23.99,13.93 24.31,7.53 24.55,2.7 21.02,0 15.89,0 6.73,0 0.73,8.08 0.34,15.86 0,22.65 3.53,26 10.78,26 c 2.79,0 6.5,-0.32 9.52,-1.23 0,0 -0.24,-5.52 -0.24,-5.52 z M 17.32,7.53 C 17.2,9.91 14.26,10.05 8.47,10 9.1,7.91 11.22,6 14.69,6 c 1.71,0 2.69,0.65 2.63,1.53 z"
         id="path2629"
         inkscape:connector-curvature="0" />
    </g>
    <g
       transform="matrix(0.45117332,0,0,0.45117332,145.01449,160.17988)"
       style="fill:#000000;fill-opacity:1;fill-rule:evenodd;stroke:none;stroke-width:1.00000003pt;stroke-linecap:butt;stroke-linejoin:miter"
       id="g2631">
      <path
         style="fill:#000000;fill-opacity:1"
         d="M 20.05,19.25 C 17.98,20.26 15.62,20 12.88,20 10.7,20 9.03,19.62 8.11,18.88 7.63,18.07 7.42,16.81 7.46,16 17.6,16.27 23.98,13.93 24.31,7.53 24.55,2.7 21.02,0 15.89,0 6.72,0 0.72,8.08 0.33,15.86 0,22.65 3.52,26 10.77,26 c 2.8,0 6.5,-0.32 9.53,-1.23 0,0 -0.25,-5.52 -0.25,-5.52 z M 17.32,7.53 C 17.2,9.91 14.26,10.05 8.46,10 9.1,7.91 11.21,6 14.68,6 c 1.71,0 2.7,0.65 2.64,1.53 z"
         id="path2633"
         inkscape:connector-curvature="0" />
    </g>
    <g
       transform="matrix(0.45117332,0,0,0.45117332,156.91646,155.21698)"
       style="fill:#000000;fill-opacity:1;fill-rule:evenodd;stroke:none;stroke-width:1.00000003pt;stroke-linecap:butt;stroke-linejoin:miter"
       id="g2635">
      <path
         style="fill:#000000;fill-opacity:1"
         d="M 23.31,0 C 23.31,0 20.5,11.36 20.5,11.36 19.48,10.94 18.15,11 17.11,11 7.53,11 0.75,19.2 0.3,28.08 0,34.34 3.34,37 7.64,37 c 3.01,0 6.18,-1.33 8.58,-4.77 0,0 0.1,0 0.1,0 0,0 -0.57,4.77 -0.57,4.77 0,0 6.78,0 6.78,0 0.31,-3 0.96,-6.57 1.69,-9.83 0,0 6.49,-27.17 6.49,-27.17 0,0 -7.4,0 -7.4,0 z M 17.47,24.42 C 16.3,29.35 13.54,31 11.36,31 9.19,31 7.98,29.49 8.13,26.8 8.38,21.82 11.8,17 16.25,17 c 1.25,0 2.32,0.19 2.91,0.47 0,0 -1.69,6.95 -1.69,6.95 z"
         id="path2637"
         inkscape:connector-curvature="0" />
    </g>
    <g
       transform="matrix(0.45117332,0,0,0.45117332,170.3208,160.17988)"
       style="fill:#000000;fill-opacity:1;fill-rule:evenodd;stroke:none;stroke-width:1.00000003pt;stroke-linecap:butt;stroke-linejoin:miter"
       id="g2639">
      <path
         style="fill:#000000;fill-opacity:1"
         d="M 10.61,26 C 19.31,26 26.02,19.41 26.49,10.44 26.78,4.5 23.08,0 16.25,0 7.23,0 0.76,7.3 0.31,16.12 0,22.54 4.14,26 10.61,26 Z m 1.17,-6 C 9.24,20 7.84,18.38 7.99,15.96 8.19,11.93 10.68,6 14.97,6 c 2.96,0 3.87,2.27 3.75,4.5 -0.22,4.4 -2.9,9.5 -6.94,9.5 z"
         id="path2641"
         inkscape:connector-curvature="0" />
    </g>
    <g
       transform="matrix(0.45117332,0,0,0.45117332,183.20633,160.17988)"
       style="fill:#000000;fill-opacity:1;fill-rule:evenodd;stroke:none;stroke-width:1.00000003pt;stroke-linecap:butt;stroke-linejoin:miter"
       id="g2643">
      <path
         style="fill:#000000;fill-opacity:1"
         d="M 7.2,26 C 7.2,26 9.9,14.58 9.9,14.58 11.03,9.49 13.85,6 16.38,6 c 1.82,0 2.32,1.33 2.23,3.07 -0.05,0.9 -0.25,1.91 -0.46,2.91 0,0 -3.34,14.02 -3.34,14.02 0,0 7.2,0 7.2,0 0,0 2.7,-11.47 2.7,-11.47 C 25.95,9.28 28.61,6 31.09,6 c 1.71,0 2.42,1.22 2.34,2.96 -0.05,1.01 -0.26,2.12 -0.52,3.13 0,0 -3.24,13.91 -3.24,13.91 0,0 7.25,0 7.25,0 0,0 3.49,-14.81 3.49,-14.81 0.27,-1.33 0.58,-3.4 0.63,-4.46 C 41.26,2.33 39.11,0 35.23,0 31.91,0 28.68,1.5 26.23,4.66 26.14,2.38 24.51,0 20.47,0 17.2,0 14.08,1.48 11.58,4.83 c 0,0 -0.1,0 -0.1,0 0,0 0.67,-3.83 0.67,-3.83 0,0 -6.42,0 -6.42,0 C 5.31,3.14 4.8,5.73 4.02,8.75 4.02,8.75 0,26 0,26 c 0,0 7.2,0 7.2,0 z"
         id="path2645"
         inkscape:connector-curvature="0" />
    </g>
    <path
       sodipodi:nodetypes="cccccssccccscccsccc"
       d="m 114.7729,141.63868 c 0.18315,0.47086 0.3663,0.94095 0.55708,1.40073 0.29381,0.62462 0.6334,1.22254 1.04167,1.78077 2.20546,2.99796 5.89901,4.63945 10.58845,5.04811 0,0 5.04429,0 5.04429,0 1.59494,-0.12439 3.2662,-0.35638 4.99851,-0.69522 2.98765,-0.58417 6.15465,-1.48161 9.44374,-2.68087 2.49162,-0.90852 5.05193,-1.98338 7.65038,-3.23262 5.65862,-2.71255 11.5042,-6.21112 17.23913,-10.43315 1.88875,-1.38928 3.70118,-2.8148 5.44112,-4.26437 1.59494,-1.32708 3.12502,-2.67478 4.58641,-4.03734 4.07894,-3.93089 7.15817,-7.92321 8.90193,-11.42865 1.81623,-3.65043 2.17874,-6.77164 0.69063,-8.73785 -0.91194,-1.20689 -2.4382,-1.85364 -4.40327,-2.00589 8.85231,-6.642283 14.01109,-14.699804 12.16051,-19.779954 -0.58763,-1.621288 -1.88114,-2.83083 -3.73554,-3.499723 -0.82417,-0.296466 -1.7514,-0.484214 -2.76255,-0.569675 0,0 -2.72437,0 -2.72437,0 -3.8042,0.274347 -9.33625,1.636528 -14.0295,3.936603"
       id="path2647"
       style="fill:#020000;fill-opacity:0;fill-rule:evenodd;stroke:#000000;stroke-width:2.25586605;stroke-linecap:butt;stroke-linejoin:miter;stroke-miterlimit:4;stroke-opacity:1"
       inkscape:connector-curvature="0" />
  </g>
</svg>
